/Library/Java/JavaVirtualMachines/jdk1.8.0_181.jdk/Contents/Home/bin/java "-javaagent:/Users/valentina/Library/Application Support/JetBrains/Toolbox/apps/IDEA-U/ch-0/182.4892.20/IntelliJ IDEA.app/Contents/lib/idea_rt.jar=49476:/Users/valentina/Library/Application Support/JetBrains/Toolbox/apps/IDEA-U/ch-0/182.4892.20/IntelliJ IDEA.app/Contents/bin" -Dfile.encoding=UTF-8 -classpath /Library/Java/JavaVirtualMachines/jdk1.8.0_181.jdk/Contents/Home/jre/lib/charsets.jar:/Library/Java/JavaVirtualMachines/jdk1.8.0_181.jdk/Contents/Home/jre/lib/deploy.jar:/Library/Java/JavaVirtualMachines/jdk1.8.0_181.jdk/Contents/Home/jre/lib/ext/cldrdata.jar:/Library/Java/JavaVirtualMachines/jdk1.8.0_181.jdk/Contents/Home/jre/lib/ext/dnsns.jar:/Library/Java/JavaVirtualMachines/jdk1.8.0_181.jdk/Contents/Home/jre/lib/ext/jaccess.jar:/Library/Java/JavaVirtualMachines/jdk1.8.0_181.jdk/Contents/Home/jre/lib/ext/jfxrt.jar:/Library/Java/JavaVirtualMachines/jdk1.8.0_181.jdk/Contents/Home/jre/lib/ext/localedata.jar:/Library/Java/JavaVirtualMachines/jdk1.8.0_181.jdk/Contents/Home/jre/lib/ext/nashorn.jar:/Library/Java/JavaVirtualMachines/jdk1.8.0_181.jdk/Contents/Home/jre/lib/ext/sunec.jar:/Library/Java/JavaVirtualMachines/jdk1.8.0_181.jdk/Contents/Home/jre/lib/ext/sunjce_provider.jar:/Library/Java/JavaVirtualMachines/jdk1.8.0_181.jdk/Contents/Home/jre/lib/ext/sunpkcs11.jar:/Library/Java/JavaVirtualMachines/jdk1.8.0_181.jdk/Contents/Home/jre/lib/ext/zipfs.jar:/Library/Java/JavaVirtualMachines/jdk1.8.0_181.jdk/Contents/Home/jre/lib/javaws.jar:/Library/Java/JavaVirtualMachines/jdk1.8.0_181.jdk/Contents/Home/jre/lib/jce.jar:/Library/Java/JavaVirtualMachines/jdk1.8.0_181.jdk/Contents/Home/jre/lib/jfr.jar:/Library/Java/JavaVirtualMachines/jdk1.8.0_181.jdk/Contents/Home/jre/lib/jfxswt.jar:/Library/Java/JavaVirtualMachines/jdk1.8.0_181.jdk/Contents/Home/jre/lib/jsse.jar:/Library/Java/JavaVirtualMachines/jdk1.8.0_181.jdk/Contents/Home/jre/lib/management-agent.jar:/Library/Java/JavaVirtualMachines/jdk1.8.0_181.jdk/Contents/Home/jre/lib/plugin.jar:/Library/Java/JavaVirtualMachines/jdk1.8.0_181.jdk/Contents/Home/jre/lib/resources.jar:/Library/Java/JavaVirtualMachines/jdk1.8.0_181.jdk/Contents/Home/jre/lib/rt.jar:/Library/Java/JavaVirtualMachines/jdk1.8.0_181.jdk/Contents/Home/lib/ant-javafx.jar:/Library/Java/JavaVirtualMachines/jdk1.8.0_181.jdk/Contents/Home/lib/dt.jar:/Library/Java/JavaVirtualMachines/jdk1.8.0_181.jdk/Contents/Home/lib/javafx-mx.jar:/Library/Java/JavaVirtualMachines/jdk1.8.0_181.jdk/Contents/Home/lib/jconsole.jar:/Library/Java/JavaVirtualMachines/jdk1.8.0_181.jdk/Contents/Home/lib/packager.jar:/Library/Java/JavaVirtualMachines/jdk1.8.0_181.jdk/Contents/Home/lib/sa-jdi.jar:/Library/Java/JavaVirtualMachines/jdk1.8.0_181.jdk/Contents/Home/lib/tools.jar:/Users/valentina/Desktop/sose-midterm/unbounded-queue/youtubevideostreamingserver/out/production/youtubevideostreamingserver youtube.video.streaming.server.YouTubeVideoStreamingServer
at time 2018-11-10 12:11:22.993 queued tasks: 0
at time 2018-11-10 12:11:22.999 active tasks: 0
at time 2018-11-10 12:11:22.999 notCompleted tasks: 0
-----------------------------------------------------
at time 2018-11-10 12:11:23.492 queued tasks: 0
at time 2018-11-10 12:11:23.492 active tasks: 0
at time 2018-11-10 12:11:23.492 notCompleted tasks: 0
-----------------------------------------------------
at time 2018-11-10 12:11:23.993 queued tasks: 0
at time 2018-11-10 12:11:23.993 active tasks: 0
at time 2018-11-10 12:11:23.993 notCompleted tasks: 0
-----------------------------------------------------
at time 2018-11-10 12:11:24.493 queued tasks: 0
at time 2018-11-10 12:11:24.494 active tasks: 0
at time 2018-11-10 12:11:24.494 notCompleted tasks: 0
-----------------------------------------------------
at time 2018-11-10 12:11:24.996 queued tasks: 0
at time 2018-11-10 12:11:24.996 active tasks: 0
at time 2018-11-10 12:11:24.996 notCompleted tasks: 0
-----------------------------------------------------
at time 2018-11-10 12:11:25.495 queued tasks: 0
at time 2018-11-10 12:11:25.495 active tasks: 0
at time 2018-11-10 12:11:25.496 notCompleted tasks: 0
-----------------------------------------------------
START streamLongVideo request management at time 2018-11-10 12:11:25.541 for clientID 1
START streamLongVideo request management at time 2018-11-10 12:11:25.564 for clientID 2
at time 2018-11-10 12:11:25.992 queued tasks: 0
at time 2018-11-10 12:11:25.992 active tasks: 2
at time 2018-11-10 12:11:25.992 notCompleted tasks: 2
-----------------------------------------------------
START streamLongVideo request management at time 2018-11-10 12:11:26.071 for clientID 3
at time 2018-11-10 12:11:26.495 queued tasks: 0
at time 2018-11-10 12:11:26.495 active tasks: 3
at time 2018-11-10 12:11:26.495 notCompleted tasks: 3
-----------------------------------------------------
START streamLongVideo request management at time 2018-11-10 12:11:26.56 for clientID 4
at time 2018-11-10 12:11:26.991 queued tasks: 0
at time 2018-11-10 12:11:26.992 active tasks: 4
at time 2018-11-10 12:11:26.992 notCompleted tasks: 4
-----------------------------------------------------
START streamLongVideo request management at time 2018-11-10 12:11:27.063 for clientID 5
at time 2018-11-10 12:11:27.495 queued tasks: 0
at time 2018-11-10 12:11:27.495 active tasks: 5
at time 2018-11-10 12:11:27.495 notCompleted tasks: 5
-----------------------------------------------------
at time 2018-11-10 12:11:27.992 queued tasks: 1
at time 2018-11-10 12:11:27.992 active tasks: 5
at time 2018-11-10 12:11:27.992 notCompleted tasks: 6
-----------------------------------------------------
at time 2018-11-10 12:11:28.495 queued tasks: 2
at time 2018-11-10 12:11:28.496 active tasks: 5
at time 2018-11-10 12:11:28.496 notCompleted tasks: 7
-----------------------------------------------------
at time 2018-11-10 12:11:28.992 queued tasks: 3
at time 2018-11-10 12:11:28.992 active tasks: 5
at time 2018-11-10 12:11:28.992 notCompleted tasks: 8
-----------------------------------------------------
at time 2018-11-10 12:11:29.492 queued tasks: 4
at time 2018-11-10 12:11:29.492 active tasks: 5
at time 2018-11-10 12:11:29.492 notCompleted tasks: 9
-----------------------------------------------------
at time 2018-11-10 12:11:29.992 queued tasks: 5
at time 2018-11-10 12:11:29.992 active tasks: 5
at time 2018-11-10 12:11:29.992 notCompleted tasks: 10
-----------------------------------------------------
START streamLongVideo request management at time 2018-11-10 12:11:30.077 for clientID 6
START streamLongVideo request management at time 2018-11-10 12:11:30.358 for clientID 7
START streamLongVideo request management at time 2018-11-10 12:11:30.45 for clientID 8
at time 2018-11-10 12:11:30.495 queued tasks: 3
at time 2018-11-10 12:11:30.495 active tasks: 5
at time 2018-11-10 12:11:30.495 notCompleted tasks: 8
-----------------------------------------------------
START streamLongVideo request management at time 2018-11-10 12:11:30.814 for clientID 10
at time 2018-11-10 12:11:30.991 queued tasks: 3
at time 2018-11-10 12:11:30.992 active tasks: 5
at time 2018-11-10 12:11:30.992 notCompleted tasks: 8
-----------------------------------------------------
START streamLongVideo request management at time 2018-11-10 12:11:31.226 for clientID 9
at time 2018-11-10 12:11:31.493 queued tasks: 3
at time 2018-11-10 12:11:31.493 active tasks: 5
at time 2018-11-10 12:11:31.493 notCompleted tasks: 8
-----------------------------------------------------
at time 2018-11-10 12:11:31.992 queued tasks: 4
at time 2018-11-10 12:11:31.992 active tasks: 5
at time 2018-11-10 12:11:31.992 notCompleted tasks: 9
-----------------------------------------------------
at time 2018-11-10 12:11:32.492 queued tasks: 5
at time 2018-11-10 12:11:32.493 active tasks: 5
at time 2018-11-10 12:11:32.493 notCompleted tasks: 10
-----------------------------------------------------
at time 2018-11-10 12:11:32.997 queued tasks: 6
at time 2018-11-10 12:11:32.997 active tasks: 5
at time 2018-11-10 12:11:32.997 notCompleted tasks: 11
increasing poolSize to: 6
-----------------------------------------------------
START streamLongVideo request management at time 2018-11-10 12:11:32.999 for clientID 11
at time 2018-11-10 12:11:33.493 queued tasks: 6
at time 2018-11-10 12:11:33.493 active tasks: 6
at time 2018-11-10 12:11:33.493 notCompleted tasks: 12
increasing poolSize to: 7
-----------------------------------------------------
START streamLongVideo request management at time 2018-11-10 12:11:33.528 for clientID 12
at time 2018-11-10 12:11:33.994 queued tasks: 6
at time 2018-11-10 12:11:33.994 active tasks: 7
at time 2018-11-10 12:11:33.994 notCompleted tasks: 13
increasing poolSize to: 8
-----------------------------------------------------
START streamLongVideo request management at time 2018-11-10 12:11:33.996 for clientID 13
at time 2018-11-10 12:11:34.493 queued tasks: 6
at time 2018-11-10 12:11:34.493 active tasks: 8
at time 2018-11-10 12:11:34.493 notCompleted tasks: 14
increasing poolSize to: 9
-----------------------------------------------------
START streamLongVideo request management at time 2018-11-10 12:11:34.494 for clientID 15
at time 2018-11-10 12:11:34.992 queued tasks: 6
at time 2018-11-10 12:11:34.992 active tasks: 9
at time 2018-11-10 12:11:34.992 notCompleted tasks: 15
increasing poolSize to: 10
-----------------------------------------------------
START streamLongVideo request management at time 2018-11-10 12:11:34.993 for clientID 14
START streamLongVideo request management at time 2018-11-10 12:11:35.215 for clientID 17
at time 2018-11-10 12:11:35.492 queued tasks: 5
at time 2018-11-10 12:11:35.492 active tasks: 10
at time 2018-11-10 12:11:35.492 notCompleted tasks: 15
decreasing poolSize to: 9
-----------------------------------------------------
at time 2018-11-10 12:11:35.993 queued tasks: 6
at time 2018-11-10 12:11:35.993 active tasks: 9
at time 2018-11-10 12:11:35.993 notCompleted tasks: 15
increasing poolSize to: 10
-----------------------------------------------------
START streamLongVideo request management at time 2018-11-10 12:11:35.995 for clientID 16
START streamLongVideo request management at time 2018-11-10 12:11:36.196 for clientID 18
at time 2018-11-10 12:11:36.493 queued tasks: 5
at time 2018-11-10 12:11:36.493 active tasks: 10
at time 2018-11-10 12:11:36.493 notCompleted tasks: 15
decreasing poolSize to: 9
-----------------------------------------------------
at time 2018-11-10 12:11:36.993 queued tasks: 6
at time 2018-11-10 12:11:36.993 active tasks: 10
at time 2018-11-10 12:11:36.993 notCompleted tasks: 16
increasing poolSize to: 11
-----------------------------------------------------
START streamLongVideo request management at time 2018-11-10 12:11:36.995 for clientID 19
START streamLongVideo request management at time 2018-11-10 12:11:37.032 for clientID 20
at time 2018-11-10 12:11:37.493 queued tasks: 5
at time 2018-11-10 12:11:37.493 active tasks: 11
at time 2018-11-10 12:11:37.493 notCompleted tasks: 16
decreasing poolSize to: 10
-----------------------------------------------------
at time 2018-11-10 12:11:37.992 queued tasks: 5
at time 2018-11-10 12:11:37.992 active tasks: 11
at time 2018-11-10 12:11:37.992 notCompleted tasks: 16
decreasing poolSize to: 10
-----------------------------------------------------
at time 2018-11-10 12:11:38.495 queued tasks: 5
at time 2018-11-10 12:11:38.496 active tasks: 10
at time 2018-11-10 12:11:38.496 notCompleted tasks: 15
decreasing poolSize to: 9
-----------------------------------------------------
at time 2018-11-10 12:11:38.992 queued tasks: 5
at time 2018-11-10 12:11:38.992 active tasks: 10
at time 2018-11-10 12:11:38.992 notCompleted tasks: 15
decreasing poolSize to: 9
-----------------------------------------------------
at time 2018-11-10 12:11:39.496 queued tasks: 5
at time 2018-11-10 12:11:39.496 active tasks: 10
at time 2018-11-10 12:11:39.496 notCompleted tasks: 15
decreasing poolSize to: 9
-----------------------------------------------------
at time 2018-11-10 12:11:39.995 queued tasks: 5
at time 2018-11-10 12:11:39.995 active tasks: 10
at time 2018-11-10 12:11:39.995 notCompleted tasks: 15
decreasing poolSize to: 9
-----------------------------------------------------
at time 2018-11-10 12:11:40.492 queued tasks: 5
at time 2018-11-10 12:11:40.492 active tasks: 10
at time 2018-11-10 12:11:40.492 notCompleted tasks: 15
decreasing poolSize to: 9
-----------------------------------------------------
at time 2018-11-10 12:11:40.994 queued tasks: 5
at time 2018-11-10 12:11:40.994 active tasks: 9
at time 2018-11-10 12:11:40.994 notCompleted tasks: 14
decreasing poolSize to: 8
-----------------------------------------------------
at time 2018-11-10 12:11:41.492 queued tasks: 5
at time 2018-11-10 12:11:41.493 active tasks: 8
at time 2018-11-10 12:11:41.493 notCompleted tasks: 13
decreasing poolSize to: 7
-----------------------------------------------------
at time 2018-11-10 12:11:41.992 queued tasks: 5
at time 2018-11-10 12:11:41.992 active tasks: 7
at time 2018-11-10 12:11:41.992 notCompleted tasks: 12
decreasing poolSize to: 6
-----------------------------------------------------
START streamLongVideo request management at time 2018-11-10 12:11:42.298 for clientID 21
START streamLongVideo request management at time 2018-11-10 12:11:42.448 for clientID 23
at time 2018-11-10 12:11:42.493 queued tasks: 3
at time 2018-11-10 12:11:42.493 active tasks: 6
at time 2018-11-10 12:11:42.493 notCompleted tasks: 9
decreasing poolSize to: 5
-----------------------------------------------------
at time 2018-11-10 12:11:42.993 queued tasks: 3
at time 2018-11-10 12:11:42.993 active tasks: 5
at time 2018-11-10 12:11:42.993 notCompleted tasks: 8
-----------------------------------------------------
START streamLongVideo request management at time 2018-11-10 12:11:43.105 for clientID 22
START streamLongVideo request management at time 2018-11-10 12:11:43.407 for clientID 25
at time 2018-11-10 12:11:43.498 queued tasks: 1
at time 2018-11-10 12:11:43.498 active tasks: 5
at time 2018-11-10 12:11:43.498 notCompleted tasks: 6
-----------------------------------------------------
START streamLongVideo request management at time 2018-11-10 12:11:43.576 for clientID 24
at time 2018-11-10 12:11:43.992 queued tasks: 0
at time 2018-11-10 12:11:43.992 active tasks: 5
at time 2018-11-10 12:11:43.992 notCompleted tasks: 5
-----------------------------------------------------
at time 2018-11-10 12:11:44.494 queued tasks: 0
at time 2018-11-10 12:11:44.494 active tasks: 5
at time 2018-11-10 12:11:44.494 notCompleted tasks: 5
-----------------------------------------------------
at time 2018-11-10 12:11:44.995 queued tasks: 0
at time 2018-11-10 12:11:44.995 active tasks: 5
at time 2018-11-10 12:11:44.995 notCompleted tasks: 5
-----------------------------------------------------
at time 2018-11-10 12:11:45.492 queued tasks: 0
at time 2018-11-10 12:11:45.492 active tasks: 5
at time 2018-11-10 12:11:45.492 notCompleted tasks: 5
-----------------------------------------------------
at time 2018-11-10 12:11:45.994 queued tasks: 0
at time 2018-11-10 12:11:45.994 active tasks: 5
at time 2018-11-10 12:11:45.994 notCompleted tasks: 5
-----------------------------------------------------
at time 2018-11-10 12:11:46.495 queued tasks: 0
at time 2018-11-10 12:11:46.495 active tasks: 3
at time 2018-11-10 12:11:46.495 notCompleted tasks: 3
-----------------------------------------------------
at time 2018-11-10 12:11:46.993 queued tasks: 0
at time 2018-11-10 12:11:46.993 active tasks: 1
at time 2018-11-10 12:11:46.993 notCompleted tasks: 1
-----------------------------------------------------
at time 2018-11-10 12:11:47.494 queued tasks: 0
at time 2018-11-10 12:11:47.494 active tasks: 0
at time 2018-11-10 12:11:47.494 notCompleted tasks: 0
-----------------------------------------------------
at time 2018-11-10 12:11:47.996 queued tasks: 0
at time 2018-11-10 12:11:47.996 active tasks: 0
at time 2018-11-10 12:11:47.996 notCompleted tasks: 0
-----------------------------------------------------
at time 2018-11-10 12:11:48.497 queued tasks: 0
at time 2018-11-10 12:11:48.497 active tasks: 0
at time 2018-11-10 12:11:48.497 notCompleted tasks: 0
-----------------------------------------------------
at time 2018-11-10 12:11:48.994 queued tasks: 0
at time 2018-11-10 12:11:48.994 active tasks: 0
at time 2018-11-10 12:11:48.994 notCompleted tasks: 0
-----------------------------------------------------
at time 2018-11-10 12:11:49.492 queued tasks: 0
at time 2018-11-10 12:11:49.492 active tasks: 0
at time 2018-11-10 12:11:49.493 notCompleted tasks: 0
-----------------------------------------------------
at time 2018-11-10 12:11:49.997 queued tasks: 0
at time 2018-11-10 12:11:49.997 active tasks: 0
at time 2018-11-10 12:11:49.997 notCompleted tasks: 0
-----------------------------------------------------

Process finished with exit code 130 (interrupted by signal 2: SIGINT)
