/Library/Java/JavaVirtualMachines/jdk1.8.0_181.jdk/Contents/Home/bin/java "-javaagent:/Users/valentina/Library/Application Support/JetBrains/Toolbox/apps/IDEA-U/ch-0/182.4892.20/IntelliJ IDEA.app/Contents/lib/idea_rt.jar=49511:/Users/valentina/Library/Application Support/JetBrains/Toolbox/apps/IDEA-U/ch-0/182.4892.20/IntelliJ IDEA.app/Contents/bin" -Dfile.encoding=UTF-8 -classpath /Library/Java/JavaVirtualMachines/jdk1.8.0_181.jdk/Contents/Home/jre/lib/charsets.jar:/Library/Java/JavaVirtualMachines/jdk1.8.0_181.jdk/Contents/Home/jre/lib/deploy.jar:/Library/Java/JavaVirtualMachines/jdk1.8.0_181.jdk/Contents/Home/jre/lib/ext/cldrdata.jar:/Library/Java/JavaVirtualMachines/jdk1.8.0_181.jdk/Contents/Home/jre/lib/ext/dnsns.jar:/Library/Java/JavaVirtualMachines/jdk1.8.0_181.jdk/Contents/Home/jre/lib/ext/jaccess.jar:/Library/Java/JavaVirtualMachines/jdk1.8.0_181.jdk/Contents/Home/jre/lib/ext/jfxrt.jar:/Library/Java/JavaVirtualMachines/jdk1.8.0_181.jdk/Contents/Home/jre/lib/ext/localedata.jar:/Library/Java/JavaVirtualMachines/jdk1.8.0_181.jdk/Contents/Home/jre/lib/ext/nashorn.jar:/Library/Java/JavaVirtualMachines/jdk1.8.0_181.jdk/Contents/Home/jre/lib/ext/sunec.jar:/Library/Java/JavaVirtualMachines/jdk1.8.0_181.jdk/Contents/Home/jre/lib/ext/sunjce_provider.jar:/Library/Java/JavaVirtualMachines/jdk1.8.0_181.jdk/Contents/Home/jre/lib/ext/sunpkcs11.jar:/Library/Java/JavaVirtualMachines/jdk1.8.0_181.jdk/Contents/Home/jre/lib/ext/zipfs.jar:/Library/Java/JavaVirtualMachines/jdk1.8.0_181.jdk/Contents/Home/jre/lib/javaws.jar:/Library/Java/JavaVirtualMachines/jdk1.8.0_181.jdk/Contents/Home/jre/lib/jce.jar:/Library/Java/JavaVirtualMachines/jdk1.8.0_181.jdk/Contents/Home/jre/lib/jfr.jar:/Library/Java/JavaVirtualMachines/jdk1.8.0_181.jdk/Contents/Home/jre/lib/jfxswt.jar:/Library/Java/JavaVirtualMachines/jdk1.8.0_181.jdk/Contents/Home/jre/lib/jsse.jar:/Library/Java/JavaVirtualMachines/jdk1.8.0_181.jdk/Contents/Home/jre/lib/management-agent.jar:/Library/Java/JavaVirtualMachines/jdk1.8.0_181.jdk/Contents/Home/jre/lib/plugin.jar:/Library/Java/JavaVirtualMachines/jdk1.8.0_181.jdk/Contents/Home/jre/lib/resources.jar:/Library/Java/JavaVirtualMachines/jdk1.8.0_181.jdk/Contents/Home/jre/lib/rt.jar:/Library/Java/JavaVirtualMachines/jdk1.8.0_181.jdk/Contents/Home/lib/ant-javafx.jar:/Library/Java/JavaVirtualMachines/jdk1.8.0_181.jdk/Contents/Home/lib/dt.jar:/Library/Java/JavaVirtualMachines/jdk1.8.0_181.jdk/Contents/Home/lib/javafx-mx.jar:/Library/Java/JavaVirtualMachines/jdk1.8.0_181.jdk/Contents/Home/lib/jconsole.jar:/Library/Java/JavaVirtualMachines/jdk1.8.0_181.jdk/Contents/Home/lib/packager.jar:/Library/Java/JavaVirtualMachines/jdk1.8.0_181.jdk/Contents/Home/lib/sa-jdi.jar:/Library/Java/JavaVirtualMachines/jdk1.8.0_181.jdk/Contents/Home/lib/tools.jar:/Users/valentina/Desktop/sose-midterm/bounded-queue/youtubevideostreamingserver/out/production/youtubevideostreamingserver youtube.video.streaming.server.YouTubeVideoStreamingServer
at time 2018-11-09 17:17:48.29 queued tasks: 0
at time 2018-11-09 17:17:48.297 active tasks: 0
at time 2018-11-09 17:17:48.297 notCompleted tasks: 0
-----------------------------------------------------
at time 2018-11-09 17:17:49.292 queued tasks: 0
at time 2018-11-09 17:17:49.292 active tasks: 0
at time 2018-11-09 17:17:49.292 notCompleted tasks: 0
-----------------------------------------------------
at time 2018-11-09 17:17:50.289 queued tasks: 0
at time 2018-11-09 17:17:50.289 active tasks: 0
at time 2018-11-09 17:17:50.289 notCompleted tasks: 0
-----------------------------------------------------
at time 2018-11-09 17:17:51.293 queued tasks: 0
at time 2018-11-09 17:17:51.293 active tasks: 0
at time 2018-11-09 17:17:51.293 notCompleted tasks: 0
-----------------------------------------------------
at time 2018-11-09 17:17:52.289 queued tasks: 0
at time 2018-11-09 17:17:52.289 active tasks: 0
at time 2018-11-09 17:17:52.289 notCompleted tasks: 0
-----------------------------------------------------
START streamLongVideo request management at time 2018-11-09 17:17:52.387 for clientID 2
START streamLongVideo request management at time 2018-11-09 17:17:52.387 for clientID 1
START streamLongVideo request management at time 2018-11-09 17:17:52.858 for clientID 3
at time 2018-11-09 17:17:53.29 queued tasks: 0
at time 2018-11-09 17:17:53.29 active tasks: 3
at time 2018-11-09 17:17:53.29 notCompleted tasks: 3
-----------------------------------------------------
START streamLongVideo request management at time 2018-11-09 17:17:53.36 for clientID 4
START streamLongVideo request management at time 2018-11-09 17:17:53.858 for clientID 5
at time 2018-11-09 17:17:54.29 queued tasks: 0
at time 2018-11-09 17:17:54.29 active tasks: 5
at time 2018-11-09 17:17:54.29 notCompleted tasks: 5
-----------------------------------------------------
at time 2018-11-09 17:17:55.291 queued tasks: 2
at time 2018-11-09 17:17:55.292 active tasks: 5
at time 2018-11-09 17:17:55.292 notCompleted tasks: 7
-----------------------------------------------------
at time 2018-11-09 17:17:56.289 queued tasks: 3
at time 2018-11-09 17:17:56.29 active tasks: 5
at time 2018-11-09 17:17:56.29 notCompleted tasks: 8
-----------------------------------------------------
START streamLongVideo request management at time 2018-11-09 17:17:56.35 for clientID 6
START streamLongVideo request management at time 2018-11-09 17:17:56.791 for clientID 7
at time 2018-11-09 17:17:57.293 queued tasks: 4
at time 2018-11-09 17:17:57.294 active tasks: 5
at time 2018-11-09 17:17:57.294 notCompleted tasks: 9
-----------------------------------------------------
START streamLongVideo request management at time 2018-11-09 17:17:57.466 for clientID 8
START streamLongVideo request management at time 2018-11-09 17:17:57.979 for clientID 9
at time 2018-11-09 17:17:58.289 queued tasks: 4
at time 2018-11-09 17:17:58.289 active tasks: 5
at time 2018-11-09 17:17:58.289 notCompleted tasks: 9
-----------------------------------------------------
START streamLongVideo request management at time 2018-11-09 17:17:58.399 for clientID 10
at time 2018-11-09 17:17:59.29 queued tasks: 5
at time 2018-11-09 17:17:59.29 active tasks: 5
at time 2018-11-09 17:17:59.291 notCompleted tasks: 10
-----------------------------------------------------
at time 2018-11-09 17:18:00.292 queued tasks: 5
at time 2018-11-09 17:18:00.292 active tasks: 5
at time 2018-11-09 17:18:00.292 notCompleted tasks: 10
-----------------------------------------------------
START streamLongVideo request management at time 2018-11-09 17:18:00.864 for clientID 11
at time 2018-11-09 17:18:01.289 queued tasks: 5
at time 2018-11-09 17:18:01.289 active tasks: 5
at time 2018-11-09 17:18:01.289 notCompleted tasks: 10
-----------------------------------------------------
START streamLongVideo request management at time 2018-11-09 17:18:01.51 for clientID 12
START streamLongVideo request management at time 2018-11-09 17:18:02.014 for clientID 13
at time 2018-11-09 17:18:02.291 queued tasks: 4
at time 2018-11-09 17:18:02.291 active tasks: 5
at time 2018-11-09 17:18:02.291 notCompleted tasks: 9
-----------------------------------------------------
START streamLongVideo request management at time 2018-11-09 17:18:02.316 for clientID 14
START streamLongVideo request management at time 2018-11-09 17:18:02.877 for clientID 15
at time 2018-11-09 17:18:03.29 queued tasks: 4
at time 2018-11-09 17:18:03.29 active tasks: 5
at time 2018-11-09 17:18:03.29 notCompleted tasks: 9
-----------------------------------------------------
at time 2018-11-09 17:18:04.293 queued tasks: 5
at time 2018-11-09 17:18:04.293 active tasks: 5
at time 2018-11-09 17:18:04.293 notCompleted tasks: 10
-----------------------------------------------------
START streamLongVideo request management at time 2018-11-09 17:18:05.095 for clientID 21
at time 2018-11-09 17:18:05.292 queued tasks: 4
at time 2018-11-09 17:18:05.294 active tasks: 5
at time 2018-11-09 17:18:05.294 notCompleted tasks: 9
-----------------------------------------------------
START streamLongVideo request management at time 2018-11-09 17:18:05.987 for clientID 19
START streamLongVideo request management at time 2018-11-09 17:18:06.126 for clientID 22
at time 2018-11-09 17:18:06.291 queued tasks: 2
at time 2018-11-09 17:18:06.292 active tasks: 5
at time 2018-11-09 17:18:06.292 notCompleted tasks: 7
-----------------------------------------------------
START streamLongVideo request management at time 2018-11-09 17:18:06.544 for clientID 23
START streamLongVideo request management at time 2018-11-09 17:18:06.972 for clientID 24
at time 2018-11-09 17:18:07.29 queued tasks: 0
at time 2018-11-09 17:18:07.29 active tasks: 5
at time 2018-11-09 17:18:07.29 notCompleted tasks: 5
-----------------------------------------------------
at time 2018-11-09 17:18:08.292 queued tasks: 0
at time 2018-11-09 17:18:08.292 active tasks: 5
at time 2018-11-09 17:18:08.292 notCompleted tasks: 5
-----------------------------------------------------
at time 2018-11-09 17:18:09.291 queued tasks: 0
at time 2018-11-09 17:18:09.292 active tasks: 4
at time 2018-11-09 17:18:09.292 notCompleted tasks: 4
-----------------------------------------------------
at time 2018-11-09 17:18:10.29 queued tasks: 0
at time 2018-11-09 17:18:10.29 active tasks: 0
at time 2018-11-09 17:18:10.29 notCompleted tasks: 0
-----------------------------------------------------
at time 2018-11-09 17:18:11.29 queued tasks: 0
at time 2018-11-09 17:18:11.29 active tasks: 0
at time 2018-11-09 17:18:11.29 notCompleted tasks: 0
-----------------------------------------------------
at time 2018-11-09 17:18:12.292 queued tasks: 0
at time 2018-11-09 17:18:12.292 active tasks: 0
at time 2018-11-09 17:18:12.292 notCompleted tasks: 0
-----------------------------------------------------
at time 2018-11-09 17:18:13.291 queued tasks: 0
at time 2018-11-09 17:18:13.291 active tasks: 0
at time 2018-11-09 17:18:13.291 notCompleted tasks: 0
-----------------------------------------------------
at time 2018-11-09 17:18:14.289 queued tasks: 0
at time 2018-11-09 17:18:14.29 active tasks: 0
at time 2018-11-09 17:18:14.29 notCompleted tasks: 0
-----------------------------------------------------
at time 2018-11-09 17:18:15.294 queued tasks: 0
at time 2018-11-09 17:18:15.295 active tasks: 0
at time 2018-11-09 17:18:15.295 notCompleted tasks: 0
-----------------------------------------------------
at time 2018-11-09 17:18:16.293 queued tasks: 0
at time 2018-11-09 17:18:16.293 active tasks: 0
at time 2018-11-09 17:18:16.294 notCompleted tasks: 0
-----------------------------------------------------
at time 2018-11-09 17:18:17.293 queued tasks: 0
at time 2018-11-09 17:18:17.293 active tasks: 0
at time 2018-11-09 17:18:17.293 notCompleted tasks: 0
-----------------------------------------------------
at time 2018-11-09 17:18:18.292 queued tasks: 0
at time 2018-11-09 17:18:18.292 active tasks: 0
at time 2018-11-09 17:18:18.292 notCompleted tasks: 0
-----------------------------------------------------
at time 2018-11-09 17:18:19.29 queued tasks: 0
at time 2018-11-09 17:18:19.29 active tasks: 0
at time 2018-11-09 17:18:19.29 notCompleted tasks: 0
-----------------------------------------------------
at time 2018-11-09 17:18:20.29 queued tasks: 0
at time 2018-11-09 17:18:20.29 active tasks: 0
at time 2018-11-09 17:18:20.291 notCompleted tasks: 0
-----------------------------------------------------

Process finished with exit code 130 (interrupted by signal 2: SIGINT)
