/Library/Java/JavaVirtualMachines/jdk1.8.0_181.jdk/Contents/Home/bin/java "-javaagent:/Users/valentina/Library/Application Support/JetBrains/Toolbox/apps/IDEA-U/ch-0/182.4892.20/IntelliJ IDEA.app/Contents/lib/idea_rt.jar=49746:/Users/valentina/Library/Application Support/JetBrains/Toolbox/apps/IDEA-U/ch-0/182.4892.20/IntelliJ IDEA.app/Contents/bin" -Dfile.encoding=UTF-8 -classpath /Library/Java/JavaVirtualMachines/jdk1.8.0_181.jdk/Contents/Home/jre/lib/charsets.jar:/Library/Java/JavaVirtualMachines/jdk1.8.0_181.jdk/Contents/Home/jre/lib/deploy.jar:/Library/Java/JavaVirtualMachines/jdk1.8.0_181.jdk/Contents/Home/jre/lib/ext/cldrdata.jar:/Library/Java/JavaVirtualMachines/jdk1.8.0_181.jdk/Contents/Home/jre/lib/ext/dnsns.jar:/Library/Java/JavaVirtualMachines/jdk1.8.0_181.jdk/Contents/Home/jre/lib/ext/jaccess.jar:/Library/Java/JavaVirtualMachines/jdk1.8.0_181.jdk/Contents/Home/jre/lib/ext/jfxrt.jar:/Library/Java/JavaVirtualMachines/jdk1.8.0_181.jdk/Contents/Home/jre/lib/ext/localedata.jar:/Library/Java/JavaVirtualMachines/jdk1.8.0_181.jdk/Contents/Home/jre/lib/ext/nashorn.jar:/Library/Java/JavaVirtualMachines/jdk1.8.0_181.jdk/Contents/Home/jre/lib/ext/sunec.jar:/Library/Java/JavaVirtualMachines/jdk1.8.0_181.jdk/Contents/Home/jre/lib/ext/sunjce_provider.jar:/Library/Java/JavaVirtualMachines/jdk1.8.0_181.jdk/Contents/Home/jre/lib/ext/sunpkcs11.jar:/Library/Java/JavaVirtualMachines/jdk1.8.0_181.jdk/Contents/Home/jre/lib/ext/zipfs.jar:/Library/Java/JavaVirtualMachines/jdk1.8.0_181.jdk/Contents/Home/jre/lib/javaws.jar:/Library/Java/JavaVirtualMachines/jdk1.8.0_181.jdk/Contents/Home/jre/lib/jce.jar:/Library/Java/JavaVirtualMachines/jdk1.8.0_181.jdk/Contents/Home/jre/lib/jfr.jar:/Library/Java/JavaVirtualMachines/jdk1.8.0_181.jdk/Contents/Home/jre/lib/jfxswt.jar:/Library/Java/JavaVirtualMachines/jdk1.8.0_181.jdk/Contents/Home/jre/lib/jsse.jar:/Library/Java/JavaVirtualMachines/jdk1.8.0_181.jdk/Contents/Home/jre/lib/management-agent.jar:/Library/Java/JavaVirtualMachines/jdk1.8.0_181.jdk/Contents/Home/jre/lib/plugin.jar:/Library/Java/JavaVirtualMachines/jdk1.8.0_181.jdk/Contents/Home/jre/lib/resources.jar:/Library/Java/JavaVirtualMachines/jdk1.8.0_181.jdk/Contents/Home/jre/lib/rt.jar:/Library/Java/JavaVirtualMachines/jdk1.8.0_181.jdk/Contents/Home/lib/ant-javafx.jar:/Library/Java/JavaVirtualMachines/jdk1.8.0_181.jdk/Contents/Home/lib/dt.jar:/Library/Java/JavaVirtualMachines/jdk1.8.0_181.jdk/Contents/Home/lib/javafx-mx.jar:/Library/Java/JavaVirtualMachines/jdk1.8.0_181.jdk/Contents/Home/lib/jconsole.jar:/Library/Java/JavaVirtualMachines/jdk1.8.0_181.jdk/Contents/Home/lib/packager.jar:/Library/Java/JavaVirtualMachines/jdk1.8.0_181.jdk/Contents/Home/lib/sa-jdi.jar:/Library/Java/JavaVirtualMachines/jdk1.8.0_181.jdk/Contents/Home/lib/tools.jar:/Users/valentina/Desktop/sose-midterm/bounded-queue/youtubevideostreamingserver/out/production/youtubevideostreamingserver youtube.video.streaming.server.YouTubeVideoStreamingServer
at time 2018-11-09 18:00:04.769 queued tasks: 0
at time 2018-11-09 18:00:04.775 active tasks: 0
at time 2018-11-09 18:00:04.775 notCompleted tasks: 0
-----------------------------------------------------
at time 2018-11-09 18:00:05.27 queued tasks: 0
at time 2018-11-09 18:00:05.27 active tasks: 0
at time 2018-11-09 18:00:05.27 notCompleted tasks: 0
-----------------------------------------------------
at time 2018-11-09 18:00:05.769 queued tasks: 0
at time 2018-11-09 18:00:05.769 active tasks: 0
at time 2018-11-09 18:00:05.769 notCompleted tasks: 0
-----------------------------------------------------
at time 2018-11-09 18:00:06.268 queued tasks: 0
at time 2018-11-09 18:00:06.269 active tasks: 0
at time 2018-11-09 18:00:06.269 notCompleted tasks: 0
-----------------------------------------------------
at time 2018-11-09 18:00:06.77 queued tasks: 0
at time 2018-11-09 18:00:06.77 active tasks: 0
at time 2018-11-09 18:00:06.77 notCompleted tasks: 0
-----------------------------------------------------
at time 2018-11-09 18:00:07.269 queued tasks: 0
at time 2018-11-09 18:00:07.269 active tasks: 0
at time 2018-11-09 18:00:07.269 notCompleted tasks: 0
-----------------------------------------------------
at time 2018-11-09 18:00:07.77 queued tasks: 0
at time 2018-11-09 18:00:07.77 active tasks: 0
at time 2018-11-09 18:00:07.77 notCompleted tasks: 0
-----------------------------------------------------
at time 2018-11-09 18:00:08.271 queued tasks: 0
at time 2018-11-09 18:00:08.271 active tasks: 0
at time 2018-11-09 18:00:08.271 notCompleted tasks: 0
-----------------------------------------------------
at time 2018-11-09 18:00:08.768 queued tasks: 0
at time 2018-11-09 18:00:08.769 active tasks: 0
at time 2018-11-09 18:00:08.769 notCompleted tasks: 0
-----------------------------------------------------
START streamLongVideo request management at time 2018-11-09 18:00:08.897 for clientID 2
START streamLongVideo request management at time 2018-11-09 18:00:08.897 for clientID 1
at time 2018-11-09 18:00:09.27 queued tasks: 0
at time 2018-11-09 18:00:09.271 active tasks: 2
at time 2018-11-09 18:00:09.271 notCompleted tasks: 2
-----------------------------------------------------
START streamLongVideo request management at time 2018-11-09 18:00:09.339 for clientID 3
at time 2018-11-09 18:00:09.773 queued tasks: 0
at time 2018-11-09 18:00:09.774 active tasks: 3
at time 2018-11-09 18:00:09.774 notCompleted tasks: 3
-----------------------------------------------------
START streamLongVideo request management at time 2018-11-09 18:00:09.837 for clientID 4
at time 2018-11-09 18:00:10.27 queued tasks: 0
at time 2018-11-09 18:00:10.271 active tasks: 4
at time 2018-11-09 18:00:10.271 notCompleted tasks: 4
-----------------------------------------------------
START streamLongVideo request management at time 2018-11-09 18:00:10.341 for clientID 5
at time 2018-11-09 18:00:10.768 queued tasks: 0
at time 2018-11-09 18:00:10.768 active tasks: 5
at time 2018-11-09 18:00:10.769 notCompleted tasks: 5
-----------------------------------------------------
at time 2018-11-09 18:00:11.272 queued tasks: 1
at time 2018-11-09 18:00:11.272 active tasks: 5
at time 2018-11-09 18:00:11.272 notCompleted tasks: 6
-----------------------------------------------------
at time 2018-11-09 18:00:11.769 queued tasks: 2
at time 2018-11-09 18:00:11.769 active tasks: 5
at time 2018-11-09 18:00:11.769 notCompleted tasks: 7
-----------------------------------------------------
at time 2018-11-09 18:00:12.27 queued tasks: 3
at time 2018-11-09 18:00:12.27 active tasks: 5
at time 2018-11-09 18:00:12.271 notCompleted tasks: 8
increasing poolSize to: 6
-----------------------------------------------------
at time 2018-11-09 18:00:12.77 queued tasks: 4
at time 2018-11-09 18:00:12.771 active tasks: 5
at time 2018-11-09 18:00:12.771 notCompleted tasks: 9
increasing poolSize to: 6
-----------------------------------------------------
START streamLongVideo request management at time 2018-11-09 18:00:12.902 for clientID 6
START streamLongVideo request management at time 2018-11-09 18:00:13.026 for clientID 7
at time 2018-11-09 18:00:13.271 queued tasks: 3
at time 2018-11-09 18:00:13.271 active tasks: 5
at time 2018-11-09 18:00:13.271 notCompleted tasks: 8
increasing poolSize to: 6
-----------------------------------------------------
START streamLongVideo request management at time 2018-11-09 18:00:13.422 for clientID 8
START streamLongVideo request management at time 2018-11-09 18:00:13.723 for clientID 9
at time 2018-11-09 18:00:13.77 queued tasks: 2
at time 2018-11-09 18:00:13.77 active tasks: 5
at time 2018-11-09 18:00:13.77 notCompleted tasks: 7
-----------------------------------------------------
START streamLongVideo request management at time 2018-11-09 18:00:14.06 for clientID 10
at time 2018-11-09 18:00:14.27 queued tasks: 2
at time 2018-11-09 18:00:14.271 active tasks: 5
at time 2018-11-09 18:00:14.271 notCompleted tasks: 7
-----------------------------------------------------
at time 2018-11-09 18:00:14.77 queued tasks: 3
at time 2018-11-09 18:00:14.77 active tasks: 5
at time 2018-11-09 18:00:14.77 notCompleted tasks: 8
increasing poolSize to: 6
-----------------------------------------------------
at time 2018-11-09 18:00:15.271 queued tasks: 4
at time 2018-11-09 18:00:15.271 active tasks: 5
at time 2018-11-09 18:00:15.271 notCompleted tasks: 9
increasing poolSize to: 6
-----------------------------------------------------
at time 2018-11-09 18:00:15.768 queued tasks: 5
at time 2018-11-09 18:00:15.768 active tasks: 5
at time 2018-11-09 18:00:15.768 notCompleted tasks: 10
increasing poolSize to: 6
-----------------------------------------------------
START streamLongVideo request management at time 2018-11-09 18:00:15.876 for clientID 15
at time 2018-11-09 18:00:16.271 queued tasks: 5
at time 2018-11-09 18:00:16.271 active tasks: 6
at time 2018-11-09 18:00:16.271 notCompleted tasks: 11
increasing poolSize to: 7
-----------------------------------------------------
START streamLongVideo request management at time 2018-11-09 18:00:16.334 for clientID 12
at time 2018-11-09 18:00:16.769 queued tasks: 5
at time 2018-11-09 18:00:16.769 active tasks: 7
at time 2018-11-09 18:00:16.769 notCompleted tasks: 12
increasing poolSize to: 8
-----------------------------------------------------
START streamLongVideo request management at time 2018-11-09 18:00:16.836 for clientID 11
at time 2018-11-09 18:00:17.271 queued tasks: 5
at time 2018-11-09 18:00:17.272 active tasks: 8
at time 2018-11-09 18:00:17.272 notCompleted tasks: 13
increasing poolSize to: 9
-----------------------------------------------------
START streamLongVideo request management at time 2018-11-09 18:00:17.365 for clientID 14
START streamLongVideo request management at time 2018-11-09 18:00:17.587 for clientID 16
at time 2018-11-09 18:00:17.77 queued tasks: 4
at time 2018-11-09 18:00:17.77 active tasks: 9
at time 2018-11-09 18:00:17.77 notCompleted tasks: 13
increasing poolSize to: 10
-----------------------------------------------------
START streamLongVideo request management at time 2018-11-09 18:00:17.889 for clientID 13
at time 2018-11-09 18:00:18.27 queued tasks: 4
at time 2018-11-09 18:00:18.27 active tasks: 9
at time 2018-11-09 18:00:18.27 notCompleted tasks: 13
increasing poolSize to: 10
-----------------------------------------------------
START streamLongVideo request management at time 2018-11-09 18:00:18.672 for clientID 17
at time 2018-11-09 18:00:18.771 queued tasks: 4
at time 2018-11-09 18:00:18.772 active tasks: 9
at time 2018-11-09 18:00:18.772 notCompleted tasks: 13
increasing poolSize to: 10
-----------------------------------------------------
START streamLongVideo request management at time 2018-11-09 18:00:18.821 for clientID 18
at time 2018-11-09 18:00:19.27 queued tasks: 4
at time 2018-11-09 18:00:19.27 active tasks: 9
at time 2018-11-09 18:00:19.27 notCompleted tasks: 13
increasing poolSize to: 10
-----------------------------------------------------
at time 2018-11-09 18:00:19.769 queued tasks: 5
at time 2018-11-09 18:00:19.769 active tasks: 9
at time 2018-11-09 18:00:19.769 notCompleted tasks: 14
increasing poolSize to: 10
-----------------------------------------------------
START streamLongVideo request management at time 2018-11-09 18:00:19.855 for clientID 19
START streamLongVideo request management at time 2018-11-09 18:00:20.148 for clientID 24
at time 2018-11-09 18:00:20.272 queued tasks: 4
at time 2018-11-09 18:00:20.272 active tasks: 10
at time 2018-11-09 18:00:20.272 notCompleted tasks: 14
increasing poolSize to: 11
-----------------------------------------------------
at time 2018-11-09 18:00:20.772 queued tasks: 5
at time 2018-11-09 18:00:20.772 active tasks: 10
at time 2018-11-09 18:00:20.772 notCompleted tasks: 15
increasing poolSize to: 11
-----------------------------------------------------
at time 2018-11-09 18:00:21.272 queued tasks: 5
at time 2018-11-09 18:00:21.272 active tasks: 10
at time 2018-11-09 18:00:21.272 notCompleted tasks: 15
increasing poolSize to: 11
-----------------------------------------------------
at time 2018-11-09 18:00:21.769 queued tasks: 5
at time 2018-11-09 18:00:21.769 active tasks: 10
at time 2018-11-09 18:00:21.769 notCompleted tasks: 15
increasing poolSize to: 11
-----------------------------------------------------
at time 2018-11-09 18:00:22.268 queued tasks: 5
at time 2018-11-09 18:00:22.268 active tasks: 10
at time 2018-11-09 18:00:22.269 notCompleted tasks: 15
increasing poolSize to: 11
-----------------------------------------------------
START streamLongVideo request management at time 2018-11-09 18:00:22.666 for clientID 20
at time 2018-11-09 18:00:22.771 queued tasks: 4
at time 2018-11-09 18:00:22.771 active tasks: 10
at time 2018-11-09 18:00:22.771 notCompleted tasks: 14
increasing poolSize to: 11
-----------------------------------------------------
START streamLongVideo request management at time 2018-11-09 18:00:23.131 for clientID 21
at time 2018-11-09 18:00:23.271 queued tasks: 3
at time 2018-11-09 18:00:23.271 active tasks: 10
at time 2018-11-09 18:00:23.271 notCompleted tasks: 13
increasing poolSize to: 11
-----------------------------------------------------
at time 2018-11-09 18:00:23.77 queued tasks: 3
at time 2018-11-09 18:00:23.77 active tasks: 10
at time 2018-11-09 18:00:23.77 notCompleted tasks: 13
increasing poolSize to: 11
-----------------------------------------------------
START streamLongVideo request management at time 2018-11-09 18:00:23.939 for clientID 22
START streamLongVideo request management at time 2018-11-09 18:00:24.154 for clientID 23
at time 2018-11-09 18:00:24.269 queued tasks: 1
at time 2018-11-09 18:00:24.269 active tasks: 10
at time 2018-11-09 18:00:24.269 notCompleted tasks: 11
decreasing poolSize to: 10
-----------------------------------------------------
at time 2018-11-09 18:00:24.768 queued tasks: 1
at time 2018-11-09 18:00:24.769 active tasks: 10
at time 2018-11-09 18:00:24.769 notCompleted tasks: 11
decreasing poolSize to: 10
-----------------------------------------------------
at time 2018-11-09 18:00:25.269 queued tasks: 1
at time 2018-11-09 18:00:25.269 active tasks: 8
at time 2018-11-09 18:00:25.269 notCompleted tasks: 9
decreasing poolSize to: 8
-----------------------------------------------------
at time 2018-11-09 18:00:25.769 queued tasks: 1
at time 2018-11-09 18:00:25.769 active tasks: 8
at time 2018-11-09 18:00:25.769 notCompleted tasks: 9
decreasing poolSize to: 8
-----------------------------------------------------
START streamLongVideo request management at time 2018-11-09 18:00:26.055 for clientID 25
at time 2018-11-09 18:00:26.273 queued tasks: 0
at time 2018-11-09 18:00:26.273 active tasks: 7
at time 2018-11-09 18:00:26.273 notCompleted tasks: 7
decreasing poolSize to: 7
-----------------------------------------------------
at time 2018-11-09 18:00:26.77 queued tasks: 0
at time 2018-11-09 18:00:26.77 active tasks: 5
at time 2018-11-09 18:00:26.77 notCompleted tasks: 5
-----------------------------------------------------
at time 2018-11-09 18:00:27.269 queued tasks: 0
at time 2018-11-09 18:00:27.269 active tasks: 5
at time 2018-11-09 18:00:27.27 notCompleted tasks: 5
-----------------------------------------------------
at time 2018-11-09 18:00:27.769 queued tasks: 0
at time 2018-11-09 18:00:27.769 active tasks: 5
at time 2018-11-09 18:00:27.769 notCompleted tasks: 5
-----------------------------------------------------
at time 2018-11-09 18:00:28.269 queued tasks: 0
at time 2018-11-09 18:00:28.269 active tasks: 5
at time 2018-11-09 18:00:28.269 notCompleted tasks: 5
-----------------------------------------------------
at time 2018-11-09 18:00:28.77 queued tasks: 0
at time 2018-11-09 18:00:28.77 active tasks: 3
at time 2018-11-09 18:00:28.77 notCompleted tasks: 3
-----------------------------------------------------
at time 2018-11-09 18:00:29.272 queued tasks: 0
at time 2018-11-09 18:00:29.273 active tasks: 1
at time 2018-11-09 18:00:29.273 notCompleted tasks: 1
-----------------------------------------------------
at time 2018-11-09 18:00:29.769 queued tasks: 0
at time 2018-11-09 18:00:29.769 active tasks: 0
at time 2018-11-09 18:00:29.769 notCompleted tasks: 0
-----------------------------------------------------
at time 2018-11-09 18:00:30.269 queued tasks: 0
at time 2018-11-09 18:00:30.269 active tasks: 0
at time 2018-11-09 18:00:30.269 notCompleted tasks: 0
-----------------------------------------------------
at time 2018-11-09 18:00:30.77 queued tasks: 0
at time 2018-11-09 18:00:30.77 active tasks: 0
at time 2018-11-09 18:00:30.77 notCompleted tasks: 0
-----------------------------------------------------
at time 2018-11-09 18:00:31.272 queued tasks: 0
at time 2018-11-09 18:00:31.272 active tasks: 0
at time 2018-11-09 18:00:31.272 notCompleted tasks: 0
-----------------------------------------------------
at time 2018-11-09 18:00:31.771 queued tasks: 0
at time 2018-11-09 18:00:31.772 active tasks: 0
at time 2018-11-09 18:00:31.772 notCompleted tasks: 0
-----------------------------------------------------
at time 2018-11-09 18:00:32.273 queued tasks: 0
at time 2018-11-09 18:00:32.273 active tasks: 0
at time 2018-11-09 18:00:32.273 notCompleted tasks: 0
-----------------------------------------------------
at time 2018-11-09 18:00:32.769 queued tasks: 0
at time 2018-11-09 18:00:32.769 active tasks: 0
at time 2018-11-09 18:00:32.769 notCompleted tasks: 0
-----------------------------------------------------
at time 2018-11-09 18:00:33.272 queued tasks: 0
at time 2018-11-09 18:00:33.272 active tasks: 0
at time 2018-11-09 18:00:33.272 notCompleted tasks: 0
-----------------------------------------------------
at time 2018-11-09 18:00:33.773 queued tasks: 0
at time 2018-11-09 18:00:33.774 active tasks: 0
at time 2018-11-09 18:00:33.774 notCompleted tasks: 0
-----------------------------------------------------

Process finished with exit code 130 (interrupted by signal 2: SIGINT)
